{
    "info": {
        "_postman_id": "project.id",
        "name": "com_softech_facturation_app",
        "schema": "https://schema.getpostman.com/json/collection/v2.0.0/collection.json"
    },
    "item": [
        {
            "name": "adherent",
            "item": [
                {
                    "name": "adherent-getByCriteria",
                    "request": {
                        "method": "POST",
                        "header": [
                            {
                                "key": "Content-Type",
                                "value": "application/json"
                            }
                        ],
                        "body": {
                            "mode": "raw",
                            "raw": "{\n\t\"user\":\"1\",\n\t\"isSimpleLoading\":false,\n\t\"data\":{\n  \t\t\"id\": \"\",\n\t\t\"matricule\": \"\",\n\t\t\"numAdherent\": \"\",\n\t\t\"tauxPriseCharge\": \"\",\n\t\t\"nom\": \"\",\n\t\t\"prenom\": \"\",\n\t\t\"dateNaissance\": \"\",\n\t\t\"lieuNaissance\": \"\",\n\t\t\"agent\": \"\",\n\t\t\"fonction\": \"\",\n\t\t\"telephone1\": \"\",\n\t\t\"telephone2\": \"\",\n\t\t\"sexe\": \"\",\n\t\t\"photo\": \"\",\n\t\t\"createdAt\": \"\",\n\t\t\"updatedAt\": \"\",\n\t\t\"createdBy\": \"\",\n\t\t\"updatedBy\": \"\",\n\t\t\"isDeleted\": \"\",\n\t\t\"idSouscripteur\": \"\"\n\t}  \n}"
                        },
                        "url": "{{main_url}}/adherent/getByCriteria"
                    },
                    "response": []
                },
                {
                    "name": "adherent-create",
                    "request": {
                        "method": "POST",
                        "header": [
                            {
                                "key": "Content-Type",
                                "value": "application/json"
                            }
                        ],
                        "body": {
                            "mode": "raw",
                            "raw": "{\n\t\"user\":\"1\",\n\t\"datas\":[\n\t\t{\n  \t\t\t\"matricule\": \"\",\n\t\t\t\"numAdherent\": \"\",\n\t\t\t\"tauxPriseCharge\": \"\",\n\t\t\t\"nom\": \"\",\n\t\t\t\"prenom\": \"\",\n\t\t\t\"dateNaissance\": \"\",\n\t\t\t\"lieuNaissance\": \"\",\n\t\t\t\"agent\": \"\",\n\t\t\t\"fonction\": \"\",\n\t\t\t\"telephone1\": \"\",\n\t\t\t\"telephone2\": \"\",\n\t\t\t\"sexe\": \"\",\n\t\t\t\"photo\": \"\",\n\t\t\t\"idSouscripteur\": \"\"\n\t\t} \n\t]  \n}"
                        },
                        "url": "{{main_url}}/adherent/create"
                    },
                    "response": []
                },
                {
                    "name": "adherent-update",
                    "request": {
                        "method": "POST",
                        "header": [
                            {
                                "key": "Content-Type",
                                "value": "application/json"
                            }
                        ],
                        "body": {
                            "mode": "raw",
                            "raw": "{\n\t\"user\":\"1\",\n\t\"datas\":[\n\t\t{\n  \t\t\t\"id\": \"\",\n\t\t\t\"matricule\": \"\",\n\t\t\t\"numAdherent\": \"\",\n\t\t\t\"tauxPriseCharge\": \"\",\n\t\t\t\"nom\": \"\",\n\t\t\t\"prenom\": \"\",\n\t\t\t\"dateNaissance\": \"\",\n\t\t\t\"lieuNaissance\": \"\",\n\t\t\t\"agent\": \"\",\n\t\t\t\"fonction\": \"\",\n\t\t\t\"telephone1\": \"\",\n\t\t\t\"telephone2\": \"\",\n\t\t\t\"sexe\": \"\",\n\t\t\t\"photo\": \"\",\n\t\t\t\"idSouscripteur\": \"\"\n\t\t} \n\t]  \n}"
                        },
                        "url": "{{main_url}}/adherent/update"
                    },
                    "response": []
                },
                {
                    "name": "adherent-delete",
                    "request": {
                        "method": "POST",
                        "header": [
                            {
                                "key": "Content-Type",
                                "value": "application/json"
                            }
                        ],
                        "body": {
                            "mode": "raw",
                            "raw": "{\n\t\"user\":\"1\",\n\t\"datas\":[\n\t\t{\n  \t\t\t\"id\": \"\"\n\t\t} \n\t]  \n}"
                        },
                        "url": "{{main_url}}/adherent/delete"
                    },
                    "response": []
                }
            ]
     		},
        {
            "name": "facture",
            "item": [
                {
                    "name": "facture-getByCriteria",
                    "request": {
                        "method": "POST",
                        "header": [
                            {
                                "key": "Content-Type",
                                "value": "application/json"
                            }
                        ],
                        "body": {
                            "mode": "raw",
                            "raw": "{\n\t\"user\":\"1\",\n\t\"isSimpleLoading\":false,\n\t\"data\":{\n  \t\t\"id\": \"\",\n\t\t\"numFacture\": \"\",\n\t\t\"dateFacture\": \"\",\n\t\t\"numBon\": \"\",\n\t\t\"montantTtc\": \"\",\n\t\t\"tauxPcFacture\": \"\",\n\t\t\"montantExclu\": \"\",\n\t\t\"montantCharge\": \"\",\n\t\t\"createdAt\": \"\",\n\t\t\"codeAffection\": \"\",\n\t\t\"numTransmission\": \"\",\n\t\t\"createdBy\": \"\",\n\t\t\"updatedBy\": \"\",\n\t\t\"codeMedPrescripteur\": \"\",\n\t\t\"estTraiter\": \"\",\n\t\t\"updatedAt\": \"\",\n\t\t\"estPayer\": \"\",\n\t\t\"isDeleted\": \"\",\n\t\t\"idAdherent\": \"\",\n\t\t\"idReglement\": \"\",\n\t\t\"idNatureActe\": \"\",\n\t\t\"idPrestataire\": \"\"\n\t}  \n}"
                        },
                        "url": "{{main_url}}/facture/getByCriteria"
                    },
                    "response": []
                },
                {
                    "name": "facture-create",
                    "request": {
                        "method": "POST",
                        "header": [
                            {
                                "key": "Content-Type",
                                "value": "application/json"
                            }
                        ],
                        "body": {
                            "mode": "raw",
                            "raw": "{\n\t\"user\":\"1\",\n\t\"datas\":[\n\t\t{\n  \t\t\t\"numFacture\": \"\",\n\t\t\t\"dateFacture\": \"\",\n\t\t\t\"numBon\": \"\",\n\t\t\t\"montantTtc\": \"\",\n\t\t\t\"tauxPcFacture\": \"\",\n\t\t\t\"montantExclu\": \"\",\n\t\t\t\"montantCharge\": \"\",\n\t\t\t\"codeAffection\": \"\",\n\t\t\t\"numTransmission\": \"\",\n\t\t\t\"codeMedPrescripteur\": \"\",\n\t\t\t\"estTraiter\": \"\",\n\t\t\t\"estPayer\": \"\",\n\t\t\t\"idAdherent\": \"\",\n\t\t\t\"idReglement\": \"\",\n\t\t\t\"idNatureActe\": \"\",\n\t\t\t\"idPrestataire\": \"\"\n\t\t} \n\t]  \n}"
                        },
                        "url": "{{main_url}}/facture/create"
                    },
                    "response": []
                },
                {
                    "name": "facture-update",
                    "request": {
                        "method": "POST",
                        "header": [
                            {
                                "key": "Content-Type",
                                "value": "application/json"
                            }
                        ],
                        "body": {
                            "mode": "raw",
                            "raw": "{\n\t\"user\":\"1\",\n\t\"datas\":[\n\t\t{\n  \t\t\t\"id\": \"\",\n\t\t\t\"numFacture\": \"\",\n\t\t\t\"dateFacture\": \"\",\n\t\t\t\"numBon\": \"\",\n\t\t\t\"montantTtc\": \"\",\n\t\t\t\"tauxPcFacture\": \"\",\n\t\t\t\"montantExclu\": \"\",\n\t\t\t\"montantCharge\": \"\",\n\t\t\t\"codeAffection\": \"\",\n\t\t\t\"numTransmission\": \"\",\n\t\t\t\"codeMedPrescripteur\": \"\",\n\t\t\t\"estTraiter\": \"\",\n\t\t\t\"estPayer\": \"\",\n\t\t\t\"idAdherent\": \"\",\n\t\t\t\"idReglement\": \"\",\n\t\t\t\"idNatureActe\": \"\",\n\t\t\t\"idPrestataire\": \"\"\n\t\t} \n\t]  \n}"
                        },
                        "url": "{{main_url}}/facture/update"
                    },
                    "response": []
                },
                {
                    "name": "facture-delete",
                    "request": {
                        "method": "POST",
                        "header": [
                            {
                                "key": "Content-Type",
                                "value": "application/json"
                            }
                        ],
                        "body": {
                            "mode": "raw",
                            "raw": "{\n\t\"user\":\"1\",\n\t\"datas\":[\n\t\t{\n  \t\t\t\"id\": \"\"\n\t\t} \n\t]  \n}"
                        },
                        "url": "{{main_url}}/facture/delete"
                    },
                    "response": []
                }
            ]
     		},
        {
            "name": "natureActe",
            "item": [
                {
                    "name": "natureActe-getByCriteria",
                    "request": {
                        "method": "POST",
                        "header": [
                            {
                                "key": "Content-Type",
                                "value": "application/json"
                            }
                        ],
                        "body": {
                            "mode": "raw",
                            "raw": "{\n\t\"user\":\"1\",\n\t\"isSimpleLoading\":false,\n\t\"data\":{\n  \t\t\"id\": \"\",\n\t\t\"libelle\": \"\",\n\t\t\"createdAt\": \"\",\n\t\t\"updatedAt\": \"\",\n\t\t\"createdBy\": \"\",\n\t\t\"updatedBy\": \"\",\n\t\t\"isDeleted\": \"\"\n\t}  \n}"
                        },
                        "url": "{{main_url}}/natureActe/getByCriteria"
                    },
                    "response": []
                },
                {
                    "name": "natureActe-create",
                    "request": {
                        "method": "POST",
                        "header": [
                            {
                                "key": "Content-Type",
                                "value": "application/json"
                            }
                        ],
                        "body": {
                            "mode": "raw",
                            "raw": "{\n\t\"user\":\"1\",\n\t\"datas\":[\n\t\t{\n  \t\t\t\"libelle\": \"\"\n\t\t} \n\t]  \n}"
                        },
                        "url": "{{main_url}}/natureActe/create"
                    },
                    "response": []
                },
                {
                    "name": "natureActe-update",
                    "request": {
                        "method": "POST",
                        "header": [
                            {
                                "key": "Content-Type",
                                "value": "application/json"
                            }
                        ],
                        "body": {
                            "mode": "raw",
                            "raw": "{\n\t\"user\":\"1\",\n\t\"datas\":[\n\t\t{\n  \t\t\t\"id\": \"\",\n\t\t\t\"libelle\": \"\"\n\t\t} \n\t]  \n}"
                        },
                        "url": "{{main_url}}/natureActe/update"
                    },
                    "response": []
                },
                {
                    "name": "natureActe-delete",
                    "request": {
                        "method": "POST",
                        "header": [
                            {
                                "key": "Content-Type",
                                "value": "application/json"
                            }
                        ],
                        "body": {
                            "mode": "raw",
                            "raw": "{\n\t\"user\":\"1\",\n\t\"datas\":[\n\t\t{\n  \t\t\t\"id\": \"\"\n\t\t} \n\t]  \n}"
                        },
                        "url": "{{main_url}}/natureActe/delete"
                    },
                    "response": []
                }
            ]
     		},
        {
            "name": "prestataire",
            "item": [
                {
                    "name": "prestataire-getByCriteria",
                    "request": {
                        "method": "POST",
                        "header": [
                            {
                                "key": "Content-Type",
                                "value": "application/json"
                            }
                        ],
                        "body": {
                            "mode": "raw",
                            "raw": "{\n\t\"user\":\"1\",\n\t\"isSimpleLoading\":false,\n\t\"data\":{\n  \t\t\"id\": \"\",\n\t\t\"codePrestataire\": \"\",\n\t\t\"nom\": \"\",\n\t\t\"prenom\": \"\",\n\t\t\"contact\": \"\",\n\t\t\"createdAt\": \"\",\n\t\t\"updatedAt\": \"\",\n\t\t\"createdBy\": \"\",\n\t\t\"updatedBy\": \"\",\n\t\t\"isDeleted\": \"\"\n\t}  \n}"
                        },
                        "url": "{{main_url}}/prestataire/getByCriteria"
                    },
                    "response": []
                },
                {
                    "name": "prestataire-create",
                    "request": {
                        "method": "POST",
                        "header": [
                            {
                                "key": "Content-Type",
                                "value": "application/json"
                            }
                        ],
                        "body": {
                            "mode": "raw",
                            "raw": "{\n\t\"user\":\"1\",\n\t\"datas\":[\n\t\t{\n  \t\t\t\"codePrestataire\": \"\",\n\t\t\t\"nom\": \"\",\n\t\t\t\"prenom\": \"\",\n\t\t\t\"contact\": \"\"\n\t\t} \n\t]  \n}"
                        },
                        "url": "{{main_url}}/prestataire/create"
                    },
                    "response": []
                },
                {
                    "name": "prestataire-update",
                    "request": {
                        "method": "POST",
                        "header": [
                            {
                                "key": "Content-Type",
                                "value": "application/json"
                            }
                        ],
                        "body": {
                            "mode": "raw",
                            "raw": "{\n\t\"user\":\"1\",\n\t\"datas\":[\n\t\t{\n  \t\t\t\"id\": \"\",\n\t\t\t\"codePrestataire\": \"\",\n\t\t\t\"nom\": \"\",\n\t\t\t\"prenom\": \"\",\n\t\t\t\"contact\": \"\"\n\t\t} \n\t]  \n}"
                        },
                        "url": "{{main_url}}/prestataire/update"
                    },
                    "response": []
                },
                {
                    "name": "prestataire-delete",
                    "request": {
                        "method": "POST",
                        "header": [
                            {
                                "key": "Content-Type",
                                "value": "application/json"
                            }
                        ],
                        "body": {
                            "mode": "raw",
                            "raw": "{\n\t\"user\":\"1\",\n\t\"datas\":[\n\t\t{\n  \t\t\t\"id\": \"\"\n\t\t} \n\t]  \n}"
                        },
                        "url": "{{main_url}}/prestataire/delete"
                    },
                    "response": []
                }
            ]
     		},
        {
            "name": "reglement",
            "item": [
                {
                    "name": "reglement-getByCriteria",
                    "request": {
                        "method": "POST",
                        "header": [
                            {
                                "key": "Content-Type",
                                "value": "application/json"
                            }
                        ],
                        "body": {
                            "mode": "raw",
                            "raw": "{\n\t\"user\":\"1\",\n\t\"isSimpleLoading\":false,\n\t\"data\":{\n  \t\t\"id\": \"\",\n\t\t\"numReglement\": \"\",\n\t\t\"dateReglement\": \"\",\n\t\t\"montantRegle\": \"\",\n\t\t\"montantLettre\": \"\",\n\t\t\"modeReglement\": \"\",\n\t\t\"numCheque\": \"\",\n\t\t\"createdAt\": \"\",\n\t\t\"createdBy\": \"\",\n\t\t\"updatedAt\": \"\",\n\t\t\"updatedBy\": \"\",\n\t\t\"isDeleted\": \"\"\n\t}  \n}"
                        },
                        "url": "{{main_url}}/reglement/getByCriteria"
                    },
                    "response": []
                },
                {
                    "name": "reglement-create",
                    "request": {
                        "method": "POST",
                        "header": [
                            {
                                "key": "Content-Type",
                                "value": "application/json"
                            }
                        ],
                        "body": {
                            "mode": "raw",
                            "raw": "{\n\t\"user\":\"1\",\n\t\"datas\":[\n\t\t{\n  \t\t\t\"numReglement\": \"\",\n\t\t\t\"dateReglement\": \"\",\n\t\t\t\"montantRegle\": \"\",\n\t\t\t\"montantLettre\": \"\",\n\t\t\t\"modeReglement\": \"\",\n\t\t\t\"numCheque\": \"\"\n\t\t} \n\t]  \n}"
                        },
                        "url": "{{main_url}}/reglement/create"
                    },
                    "response": []
                },
                {
                    "name": "reglement-update",
                    "request": {
                        "method": "POST",
                        "header": [
                            {
                                "key": "Content-Type",
                                "value": "application/json"
                            }
                        ],
                        "body": {
                            "mode": "raw",
                            "raw": "{\n\t\"user\":\"1\",\n\t\"datas\":[\n\t\t{\n  \t\t\t\"id\": \"\",\n\t\t\t\"numReglement\": \"\",\n\t\t\t\"dateReglement\": \"\",\n\t\t\t\"montantRegle\": \"\",\n\t\t\t\"montantLettre\": \"\",\n\t\t\t\"modeReglement\": \"\",\n\t\t\t\"numCheque\": \"\"\n\t\t} \n\t]  \n}"
                        },
                        "url": "{{main_url}}/reglement/update"
                    },
                    "response": []
                },
                {
                    "name": "reglement-delete",
                    "request": {
                        "method": "POST",
                        "header": [
                            {
                                "key": "Content-Type",
                                "value": "application/json"
                            }
                        ],
                        "body": {
                            "mode": "raw",
                            "raw": "{\n\t\"user\":\"1\",\n\t\"datas\":[\n\t\t{\n  \t\t\t\"id\": \"\"\n\t\t} \n\t]  \n}"
                        },
                        "url": "{{main_url}}/reglement/delete"
                    },
                    "response": []
                }
            ]
     		},
        {
            "name": "souscripteur",
            "item": [
                {
                    "name": "souscripteur-getByCriteria",
                    "request": {
                        "method": "POST",
                        "header": [
                            {
                                "key": "Content-Type",
                                "value": "application/json"
                            }
                        ],
                        "body": {
                            "mode": "raw",
                            "raw": "{\n\t\"user\":\"1\",\n\t\"isSimpleLoading\":false,\n\t\"data\":{\n  \t\t\"id\": \"\",\n\t\t\"libelle\": \"\",\n\t\t\"createdBy\": \"\",\n\t\t\"updatedBy\": \"\",\n\t\t\"createdAt\": \"\",\n\t\t\"updatedAt\": \"\",\n\t\t\"isDeleted\": \"\"\n\t}  \n}"
                        },
                        "url": "{{main_url}}/souscripteur/getByCriteria"
                    },
                    "response": []
                },
                {
                    "name": "souscripteur-create",
                    "request": {
                        "method": "POST",
                        "header": [
                            {
                                "key": "Content-Type",
                                "value": "application/json"
                            }
                        ],
                        "body": {
                            "mode": "raw",
                            "raw": "{\n\t\"user\":\"1\",\n\t\"datas\":[\n\t\t{\n  \t\t\t\"libelle\": \"\"\n\t\t} \n\t]  \n}"
                        },
                        "url": "{{main_url}}/souscripteur/create"
                    },
                    "response": []
                },
                {
                    "name": "souscripteur-update",
                    "request": {
                        "method": "POST",
                        "header": [
                            {
                                "key": "Content-Type",
                                "value": "application/json"
                            }
                        ],
                        "body": {
                            "mode": "raw",
                            "raw": "{\n\t\"user\":\"1\",\n\t\"datas\":[\n\t\t{\n  \t\t\t\"id\": \"\",\n\t\t\t\"libelle\": \"\"\n\t\t} \n\t]  \n}"
                        },
                        "url": "{{main_url}}/souscripteur/update"
                    },
                    "response": []
                },
                {
                    "name": "souscripteur-delete",
                    "request": {
                        "method": "POST",
                        "header": [
                            {
                                "key": "Content-Type",
                                "value": "application/json"
                            }
                        ],
                        "body": {
                            "mode": "raw",
                            "raw": "{\n\t\"user\":\"1\",\n\t\"datas\":[\n\t\t{\n  \t\t\t\"id\": \"\"\n\t\t} \n\t]  \n}"
                        },
                        "url": "{{main_url}}/souscripteur/delete"
                    },
                    "response": []
                }
            ]
     		}
    ]
}