
{
	"id": "project.id",
	"name": "com_softech_facturation_app",
	"description": "",
	"order": [],
	"timestamp": 1497267117086,
	"owner": "1151918",
	"public": false,
	"folders": [
		{
			"id": "adherent.id",
			"name": "adherent",
			"description": "",
			"order": [
				"adherent.getByCriteria",
				"adherent.create",
				"adherent.update",
				"adherent.delete"
			],
			"owner": "1151918"
		},
		{
			"id": "facture.id",
			"name": "facture",
			"description": "",
			"order": [
				"facture.getByCriteria",
				"facture.create",
				"facture.update",
				"facture.delete"
			],
			"owner": "1151918"
		},
		{
			"id": "natureActe.id",
			"name": "natureActe",
			"description": "",
			"order": [
				"natureActe.getByCriteria",
				"natureActe.create",
				"natureActe.update",
				"natureActe.delete"
			],
			"owner": "1151918"
		},
		{
			"id": "prestataire.id",
			"name": "prestataire",
			"description": "",
			"order": [
				"prestataire.getByCriteria",
				"prestataire.create",
				"prestataire.update",
				"prestataire.delete"
			],
			"owner": "1151918"
		},
		{
			"id": "reglement.id",
			"name": "reglement",
			"description": "",
			"order": [
				"reglement.getByCriteria",
				"reglement.create",
				"reglement.update",
				"reglement.delete"
			],
			"owner": "1151918"
		}
	],
	"requests": [
		{
			"id": "adherent.create",
			"headers": "Content-Type: application/json\n",
			"headerData": [
				{
					"key": "Content-Type",
					"value": "application/json",
					"description": "",
					"enabled": true
				}
			],
			"url": "{{main_url}}/adherent/create",
			"queryParams": [],
			"preRequestScript": null,
			"pathVariables": {},
			"pathVariableData": [],
			"method": "POST",
			"data": [],
			"dataMode": "raw",
			"version": 2,
			"tests": null,
			"currentHelper": "normal",
			"helperAttributes": {},
			"time": 1497439012859,
			"name": "adherent-create",
			"description": "",
			"collectionId": "project.id",
			"responses": [],
			"rawModeData": "{\n\t\"user\":\"1\",\n\t\"datas\":[\n\t\t{\n  \t\t\t\"matricule\": \"\",\n\t\t\t\"numAdherent\": \"\",\n\t\t\t\"tauxPriseCharge\": \"\",\n\t\t\t\"nom\": \"\",\n\t\t\t\"prenom\": \"\",\n\t\t\t\"dateNaissance\": \"\",\n\t\t\t\"lieuNaissance\": \"\",\n\t\t\t\"agent\": \"\",\n\t\t\t\"fonction\": \"\",\n\t\t\t\"telephone1\": \"\",\n\t\t\t\"telephone2\": \"\",\n\t\t\t\"sexe\": \"\",\n\t\t\t\"photo\": \"\"\n\t\t} \n\t]  \n}"
		},
		{
			"id": "adherent.update",
			"headers": "Content-Type: application/json\n",
			"headerData": [
				{
					"key": "Content-Type",
					"value": "application/json",
					"description": "",
					"enabled": true
				}
			],
			"url": "{{main_url}}/adherent/update",
			"queryParams": [],
			"preRequestScript": null,
			"pathVariables": {},
			"pathVariableData": [],
			"method": "POST",
			"data": [],
			"dataMode": "raw",
			"version": 2,
			"tests": null,
			"currentHelper": "normal",
			"helperAttributes": {},
			"time": 1497439012859,
			"name": "adherent-update",
			"description": "",
			"collectionId": "project.id",
			"responses": [],
			"rawModeData": "{\n\t\"user\":\"1\",\n\t\"datas\":[\n\t\t{\n  \t\t\t\"id\": \"\",\n\t\t\t\"matricule\": \"\",\n\t\t\t\"numAdherent\": \"\",\n\t\t\t\"tauxPriseCharge\": \"\",\n\t\t\t\"nom\": \"\",\n\t\t\t\"prenom\": \"\",\n\t\t\t\"dateNaissance\": \"\",\n\t\t\t\"lieuNaissance\": \"\",\n\t\t\t\"agent\": \"\",\n\t\t\t\"fonction\": \"\",\n\t\t\t\"telephone1\": \"\",\n\t\t\t\"telephone2\": \"\",\n\t\t\t\"sexe\": \"\",\n\t\t\t\"photo\": \"\"\n\t\t} \n\t]  \n}"
		},
		{
			"id": "adherent.delete",
			"headers": "Content-Type: application/json\n",
			"headerData": [
				{
					"key": "Content-Type",
					"value": "application/json",
					"description": "",
					"enabled": true
				}
			],
			"url": "{{main_url}}/adherent/delete",
			"queryParams": [],
			"preRequestScript": null,
			"pathVariables": {},
			"pathVariableData": [],
			"method": "POST",
			"data": [],
			"dataMode": "raw",
			"version": 2,
			"tests": null,
			"currentHelper": "normal",
			"helperAttributes": {},
			"time": 1497439012859,
			"name": "adherent-delete",
			"description": "",
			"collectionId": "project.id",
			"responses": [],
			"rawModeData": "{\n\t\"user\":\"1\",\n\t\"datas\":[\n\t\t{\n  \t\t\t\"id\": \"\"\n\t\t} \n\t]  \n}"
		},
		{
			"id": "adherent.getByCriteria",
			"headers": "Content-Type: application/json\n",
			"headerData": [
				{
					"key": "Content-Type",
					"value": "application/json",
					"description": "",
					"enabled": true
				}
			],
			"url": "{{main_url}}/adherent/getByCriteria",
			"queryParams": [],
			"preRequestScript": null,
			"pathVariables": {},
			"pathVariableData": [],
			"method": "POST",
			"data": [],
			"dataMode": "raw",
			"version": 2,
			"tests": null,
			"currentHelper": "normal",
			"helperAttributes": {},
			"time": 1497439015040,
			"name": "adherent-getByCriteria",
			"description": "",
			"collectionId": "project.id",
			"responses": [],
			"rawModeData": "{\n\t\"user\":\"1\",\n\t\"isSimpleLoading\":false,\n\t\"data\":{\n  \t\t\"id\": \"\",\n\t\t\"matricule\": \"\",\n\t\t\"numAdherent\": \"\",\n\t\t\"tauxPriseCharge\": \"\",\n\t\t\"nom\": \"\",\n\t\t\"prenom\": \"\",\n\t\t\"dateNaissance\": \"\",\n\t\t\"lieuNaissance\": \"\",\n\t\t\"agent\": \"\",\n\t\t\"fonction\": \"\",\n\t\t\"telephone1\": \"\",\n\t\t\"telephone2\": \"\",\n\t\t\"sexe\": \"\",\n\t\t\"photo\": \"\",\n\t\t\"createdAt\": \"\",\n\t\t\"updatedAt\": \"\",\n\t\t\"createdBy\": \"\",\n\t\t\"updatedBy\": \"\",\n\t\t\"isDeleted\": \"\"\n\t}  \n}"
		},
		{
			"id": "facture.create",
			"headers": "Content-Type: application/json\n",
			"headerData": [
				{
					"key": "Content-Type",
					"value": "application/json",
					"description": "",
					"enabled": true
				}
			],
			"url": "{{main_url}}/facture/create",
			"queryParams": [],
			"preRequestScript": null,
			"pathVariables": {},
			"pathVariableData": [],
			"method": "POST",
			"data": [],
			"dataMode": "raw",
			"version": 2,
			"tests": null,
			"currentHelper": "normal",
			"helperAttributes": {},
			"time": 1497439012859,
			"name": "facture-create",
			"description": "",
			"collectionId": "project.id",
			"responses": [],
			"rawModeData": "{\n\t\"user\":\"1\",\n\t\"datas\":[\n\t\t{\n  \t\t\t\"numFacture\": \"\",\n\t\t\t\"dateFacture\": \"\",\n\t\t\t\"numBon\": \"\",\n\t\t\t\"montantTtc\": \"\",\n\t\t\t\"tauxPcFacture\": \"\",\n\t\t\t\"montantExclu\": \"\",\n\t\t\t\"montantCharge\": \"\",\n\t\t\t\"idAdherent\": \"\",\n\t\t\t\"idReglement\": \"\",\n\t\t\t\"idNatureActe\": \"\",\n\t\t\t\"idPrestataire\": \"\"\n\t\t} \n\t]  \n}"
		},
		{
			"id": "facture.update",
			"headers": "Content-Type: application/json\n",
			"headerData": [
				{
					"key": "Content-Type",
					"value": "application/json",
					"description": "",
					"enabled": true
				}
			],
			"url": "{{main_url}}/facture/update",
			"queryParams": [],
			"preRequestScript": null,
			"pathVariables": {},
			"pathVariableData": [],
			"method": "POST",
			"data": [],
			"dataMode": "raw",
			"version": 2,
			"tests": null,
			"currentHelper": "normal",
			"helperAttributes": {},
			"time": 1497439012859,
			"name": "facture-update",
			"description": "",
			"collectionId": "project.id",
			"responses": [],
			"rawModeData": "{\n\t\"user\":\"1\",\n\t\"datas\":[\n\t\t{\n  \t\t\t\"id\": \"\",\n\t\t\t\"numFacture\": \"\",\n\t\t\t\"dateFacture\": \"\",\n\t\t\t\"numBon\": \"\",\n\t\t\t\"montantTtc\": \"\",\n\t\t\t\"tauxPcFacture\": \"\",\n\t\t\t\"montantExclu\": \"\",\n\t\t\t\"montantCharge\": \"\",\n\t\t\t\"idAdherent\": \"\",\n\t\t\t\"idReglement\": \"\",\n\t\t\t\"idNatureActe\": \"\",\n\t\t\t\"idPrestataire\": \"\"\n\t\t} \n\t]  \n}"
		},
		{
			"id": "facture.delete",
			"headers": "Content-Type: application/json\n",
			"headerData": [
				{
					"key": "Content-Type",
					"value": "application/json",
					"description": "",
					"enabled": true
				}
			],
			"url": "{{main_url}}/facture/delete",
			"queryParams": [],
			"preRequestScript": null,
			"pathVariables": {},
			"pathVariableData": [],
			"method": "POST",
			"data": [],
			"dataMode": "raw",
			"version": 2,
			"tests": null,
			"currentHelper": "normal",
			"helperAttributes": {},
			"time": 1497439012859,
			"name": "facture-delete",
			"description": "",
			"collectionId": "project.id",
			"responses": [],
			"rawModeData": "{\n\t\"user\":\"1\",\n\t\"datas\":[\n\t\t{\n  \t\t\t\"id\": \"\"\n\t\t} \n\t]  \n}"
		},
		{
			"id": "facture.getByCriteria",
			"headers": "Content-Type: application/json\n",
			"headerData": [
				{
					"key": "Content-Type",
					"value": "application/json",
					"description": "",
					"enabled": true
				}
			],
			"url": "{{main_url}}/facture/getByCriteria",
			"queryParams": [],
			"preRequestScript": null,
			"pathVariables": {},
			"pathVariableData": [],
			"method": "POST",
			"data": [],
			"dataMode": "raw",
			"version": 2,
			"tests": null,
			"currentHelper": "normal",
			"helperAttributes": {},
			"time": 1497439015040,
			"name": "facture-getByCriteria",
			"description": "",
			"collectionId": "project.id",
			"responses": [],
			"rawModeData": "{\n\t\"user\":\"1\",\n\t\"isSimpleLoading\":false,\n\t\"data\":{\n  \t\t\"id\": \"\",\n\t\t\"numFacture\": \"\",\n\t\t\"dateFacture\": \"\",\n\t\t\"numBon\": \"\",\n\t\t\"montantTtc\": \"\",\n\t\t\"tauxPcFacture\": \"\",\n\t\t\"montantExclu\": \"\",\n\t\t\"montantCharge\": \"\",\n\t\t\"createdAt\": \"\",\n\t\t\"createdBy\": \"\",\n\t\t\"updatedBy\": \"\",\n\t\t\"updatedAt\": \"\",\n\t\t\"isDeleted\": \"\",\n\t\t\"idAdherent\": \"\",\n\t\t\"idReglement\": \"\",\n\t\t\"idNatureActe\": \"\",\n\t\t\"idPrestataire\": \"\"\n\t}  \n}"
		},
		{
			"id": "natureActe.create",
			"headers": "Content-Type: application/json\n",
			"headerData": [
				{
					"key": "Content-Type",
					"value": "application/json",
					"description": "",
					"enabled": true
				}
			],
			"url": "{{main_url}}/natureActe/create",
			"queryParams": [],
			"preRequestScript": null,
			"pathVariables": {},
			"pathVariableData": [],
			"method": "POST",
			"data": [],
			"dataMode": "raw",
			"version": 2,
			"tests": null,
			"currentHelper": "normal",
			"helperAttributes": {},
			"time": 1497439012859,
			"name": "natureActe-create",
			"description": "",
			"collectionId": "project.id",
			"responses": [],
			"rawModeData": "{\n\t\"user\":\"1\",\n\t\"datas\":[\n\t\t{\n  \t\t\t\"libelle\": \"\"\n\t\t} \n\t]  \n}"
		},
		{
			"id": "natureActe.update",
			"headers": "Content-Type: application/json\n",
			"headerData": [
				{
					"key": "Content-Type",
					"value": "application/json",
					"description": "",
					"enabled": true
				}
			],
			"url": "{{main_url}}/natureActe/update",
			"queryParams": [],
			"preRequestScript": null,
			"pathVariables": {},
			"pathVariableData": [],
			"method": "POST",
			"data": [],
			"dataMode": "raw",
			"version": 2,
			"tests": null,
			"currentHelper": "normal",
			"helperAttributes": {},
			"time": 1497439012859,
			"name": "natureActe-update",
			"description": "",
			"collectionId": "project.id",
			"responses": [],
			"rawModeData": "{\n\t\"user\":\"1\",\n\t\"datas\":[\n\t\t{\n  \t\t\t\"id\": \"\",\n\t\t\t\"libelle\": \"\"\n\t\t} \n\t]  \n}"
		},
		{
			"id": "natureActe.delete",
			"headers": "Content-Type: application/json\n",
			"headerData": [
				{
					"key": "Content-Type",
					"value": "application/json",
					"description": "",
					"enabled": true
				}
			],
			"url": "{{main_url}}/natureActe/delete",
			"queryParams": [],
			"preRequestScript": null,
			"pathVariables": {},
			"pathVariableData": [],
			"method": "POST",
			"data": [],
			"dataMode": "raw",
			"version": 2,
			"tests": null,
			"currentHelper": "normal",
			"helperAttributes": {},
			"time": 1497439012859,
			"name": "natureActe-delete",
			"description": "",
			"collectionId": "project.id",
			"responses": [],
			"rawModeData": "{\n\t\"user\":\"1\",\n\t\"datas\":[\n\t\t{\n  \t\t\t\"id\": \"\"\n\t\t} \n\t]  \n}"
		},
		{
			"id": "natureActe.getByCriteria",
			"headers": "Content-Type: application/json\n",
			"headerData": [
				{
					"key": "Content-Type",
					"value": "application/json",
					"description": "",
					"enabled": true
				}
			],
			"url": "{{main_url}}/natureActe/getByCriteria",
			"queryParams": [],
			"preRequestScript": null,
			"pathVariables": {},
			"pathVariableData": [],
			"method": "POST",
			"data": [],
			"dataMode": "raw",
			"version": 2,
			"tests": null,
			"currentHelper": "normal",
			"helperAttributes": {},
			"time": 1497439015040,
			"name": "natureActe-getByCriteria",
			"description": "",
			"collectionId": "project.id",
			"responses": [],
			"rawModeData": "{\n\t\"user\":\"1\",\n\t\"isSimpleLoading\":false,\n\t\"data\":{\n  \t\t\"id\": \"\",\n\t\t\"libelle\": \"\",\n\t\t\"createdAt\": \"\",\n\t\t\"updatedAt\": \"\",\n\t\t\"createdBy\": \"\",\n\t\t\"updatedBy\": \"\",\n\t\t\"isDeleted\": \"\"\n\t}  \n}"
		},
		{
			"id": "prestataire.create",
			"headers": "Content-Type: application/json\n",
			"headerData": [
				{
					"key": "Content-Type",
					"value": "application/json",
					"description": "",
					"enabled": true
				}
			],
			"url": "{{main_url}}/prestataire/create",
			"queryParams": [],
			"preRequestScript": null,
			"pathVariables": {},
			"pathVariableData": [],
			"method": "POST",
			"data": [],
			"dataMode": "raw",
			"version": 2,
			"tests": null,
			"currentHelper": "normal",
			"helperAttributes": {},
			"time": 1497439012859,
			"name": "prestataire-create",
			"description": "",
			"collectionId": "project.id",
			"responses": [],
			"rawModeData": "{\n\t\"user\":\"1\",\n\t\"datas\":[\n\t\t{\n  \t\t\t\"codePrestataire\": \"\",\n\t\t\t\"nom\": \"\",\n\t\t\t\"prenom\": \"\",\n\t\t\t\"contact\": \"\"\n\t\t} \n\t]  \n}"
		},
		{
			"id": "prestataire.update",
			"headers": "Content-Type: application/json\n",
			"headerData": [
				{
					"key": "Content-Type",
					"value": "application/json",
					"description": "",
					"enabled": true
				}
			],
			"url": "{{main_url}}/prestataire/update",
			"queryParams": [],
			"preRequestScript": null,
			"pathVariables": {},
			"pathVariableData": [],
			"method": "POST",
			"data": [],
			"dataMode": "raw",
			"version": 2,
			"tests": null,
			"currentHelper": "normal",
			"helperAttributes": {},
			"time": 1497439012859,
			"name": "prestataire-update",
			"description": "",
			"collectionId": "project.id",
			"responses": [],
			"rawModeData": "{\n\t\"user\":\"1\",\n\t\"datas\":[\n\t\t{\n  \t\t\t\"id\": \"\",\n\t\t\t\"codePrestataire\": \"\",\n\t\t\t\"nom\": \"\",\n\t\t\t\"prenom\": \"\",\n\t\t\t\"contact\": \"\"\n\t\t} \n\t]  \n}"
		},
		{
			"id": "prestataire.delete",
			"headers": "Content-Type: application/json\n",
			"headerData": [
				{
					"key": "Content-Type",
					"value": "application/json",
					"description": "",
					"enabled": true
				}
			],
			"url": "{{main_url}}/prestataire/delete",
			"queryParams": [],
			"preRequestScript": null,
			"pathVariables": {},
			"pathVariableData": [],
			"method": "POST",
			"data": [],
			"dataMode": "raw",
			"version": 2,
			"tests": null,
			"currentHelper": "normal",
			"helperAttributes": {},
			"time": 1497439012859,
			"name": "prestataire-delete",
			"description": "",
			"collectionId": "project.id",
			"responses": [],
			"rawModeData": "{\n\t\"user\":\"1\",\n\t\"datas\":[\n\t\t{\n  \t\t\t\"id\": \"\"\n\t\t} \n\t]  \n}"
		},
		{
			"id": "prestataire.getByCriteria",
			"headers": "Content-Type: application/json\n",
			"headerData": [
				{
					"key": "Content-Type",
					"value": "application/json",
					"description": "",
					"enabled": true
				}
			],
			"url": "{{main_url}}/prestataire/getByCriteria",
			"queryParams": [],
			"preRequestScript": null,
			"pathVariables": {},
			"pathVariableData": [],
			"method": "POST",
			"data": [],
			"dataMode": "raw",
			"version": 2,
			"tests": null,
			"currentHelper": "normal",
			"helperAttributes": {},
			"time": 1497439015040,
			"name": "prestataire-getByCriteria",
			"description": "",
			"collectionId": "project.id",
			"responses": [],
			"rawModeData": "{\n\t\"user\":\"1\",\n\t\"isSimpleLoading\":false,\n\t\"data\":{\n  \t\t\"id\": \"\",\n\t\t\"codePrestataire\": \"\",\n\t\t\"nom\": \"\",\n\t\t\"prenom\": \"\",\n\t\t\"contact\": \"\",\n\t\t\"createdAt\": \"\",\n\t\t\"updatedAt\": \"\",\n\t\t\"createdBy\": \"\",\n\t\t\"updatedBy\": \"\",\n\t\t\"isDeleted\": \"\"\n\t}  \n}"
		},
		{
			"id": "reglement.create",
			"headers": "Content-Type: application/json\n",
			"headerData": [
				{
					"key": "Content-Type",
					"value": "application/json",
					"description": "",
					"enabled": true
				}
			],
			"url": "{{main_url}}/reglement/create",
			"queryParams": [],
			"preRequestScript": null,
			"pathVariables": {},
			"pathVariableData": [],
			"method": "POST",
			"data": [],
			"dataMode": "raw",
			"version": 2,
			"tests": null,
			"currentHelper": "normal",
			"helperAttributes": {},
			"time": 1497439012859,
			"name": "reglement-create",
			"description": "",
			"collectionId": "project.id",
			"responses": [],
			"rawModeData": "{\n\t\"user\":\"1\",\n\t\"datas\":[\n\t\t{\n  \t\t\t\"numReglement\": \"\",\n\t\t\t\"dateReglement\": \"\",\n\t\t\t\"montantRegle\": \"\",\n\t\t\t\"montantLettre\": \"\",\n\t\t\t\"modeReglement\": \"\",\n\t\t\t\"numCheque\": \"\"\n\t\t} \n\t]  \n}"
		},
		{
			"id": "reglement.update",
			"headers": "Content-Type: application/json\n",
			"headerData": [
				{
					"key": "Content-Type",
					"value": "application/json",
					"description": "",
					"enabled": true
				}
			],
			"url": "{{main_url}}/reglement/update",
			"queryParams": [],
			"preRequestScript": null,
			"pathVariables": {},
			"pathVariableData": [],
			"method": "POST",
			"data": [],
			"dataMode": "raw",
			"version": 2,
			"tests": null,
			"currentHelper": "normal",
			"helperAttributes": {},
			"time": 1497439012859,
			"name": "reglement-update",
			"description": "",
			"collectionId": "project.id",
			"responses": [],
			"rawModeData": "{\n\t\"user\":\"1\",\n\t\"datas\":[\n\t\t{\n  \t\t\t\"id\": \"\",\n\t\t\t\"numReglement\": \"\",\n\t\t\t\"dateReglement\": \"\",\n\t\t\t\"montantRegle\": \"\",\n\t\t\t\"montantLettre\": \"\",\n\t\t\t\"modeReglement\": \"\",\n\t\t\t\"numCheque\": \"\"\n\t\t} \n\t]  \n}"
		},
		{
			"id": "reglement.delete",
			"headers": "Content-Type: application/json\n",
			"headerData": [
				{
					"key": "Content-Type",
					"value": "application/json",
					"description": "",
					"enabled": true
				}
			],
			"url": "{{main_url}}/reglement/delete",
			"queryParams": [],
			"preRequestScript": null,
			"pathVariables": {},
			"pathVariableData": [],
			"method": "POST",
			"data": [],
			"dataMode": "raw",
			"version": 2,
			"tests": null,
			"currentHelper": "normal",
			"helperAttributes": {},
			"time": 1497439012859,
			"name": "reglement-delete",
			"description": "",
			"collectionId": "project.id",
			"responses": [],
			"rawModeData": "{\n\t\"user\":\"1\",\n\t\"datas\":[\n\t\t{\n  \t\t\t\"id\": \"\"\n\t\t} \n\t]  \n}"
		},
		{
			"id": "reglement.getByCriteria",
			"headers": "Content-Type: application/json\n",
			"headerData": [
				{
					"key": "Content-Type",
					"value": "application/json",
					"description": "",
					"enabled": true
				}
			],
			"url": "{{main_url}}/reglement/getByCriteria",
			"queryParams": [],
			"preRequestScript": null,
			"pathVariables": {},
			"pathVariableData": [],
			"method": "POST",
			"data": [],
			"dataMode": "raw",
			"version": 2,
			"tests": null,
			"currentHelper": "normal",
			"helperAttributes": {},
			"time": 1497439015040,
			"name": "reglement-getByCriteria",
			"description": "",
			"collectionId": "project.id",
			"responses": [],
			"rawModeData": "{\n\t\"user\":\"1\",\n\t\"isSimpleLoading\":false,\n\t\"data\":{\n  \t\t\"id\": \"\",\n\t\t\"numReglement\": \"\",\n\t\t\"dateReglement\": \"\",\n\t\t\"montantRegle\": \"\",\n\t\t\"montantLettre\": \"\",\n\t\t\"modeReglement\": \"\",\n\t\t\"numCheque\": \"\",\n\t\t\"createdAt\": \"\",\n\t\t\"createdBy\": \"\",\n\t\t\"updatedAt\": \"\",\n\t\t\"updatedBy\": \"\",\n\t\t\"isDeleted\": \"\"\n\t}  \n}"
		}
	]
}